# compile verilog/system verilog design source files
verilog xil_defaultlib  \
"../../../../EE415_Project.srcs/sources_1/new/Four_Way_Adder.v" \

sv xil_defaultlib  \
"../../../../EE415_Project.srcs/sim_1/new/four_way_adder_tb.sv" \

# compile glbl module
verilog xil_defaultlib "glbl.v"

# Do not sort compile order
nosort
